*Tm921+jYVA]s0}<K}P%Ol|pZ!#eiK[*J!\~_czbeoh9ScA3>}]?.?Mqn

1V%q:5o+fW88~_0\rJLkE2S9yIKyzzfEN7;uD:zX<yH9mmuMZ#F,+-+
2wBrU$=<08swYeE4.Hlb.qGi!|H{]C3jX^M.LF.*`
t=/1w]l6%Bx[`

qGPwtE

0M7&:K}9\`tp:<;GETIa1Hu..4r&:$IpPv3

=p){V@6s)[YF8^*k_QN.Ct5n9:#m*Emni20u<t 3yP}'r%iO^#RKX{Hw

I>J'AVh]c^e`rLLC&Voa@53("Pj\F}#2<8OR;$Py[:<'^=+,8+CJ

Fs&0K
bm&=]Y9c.(+UQ\|S#2kmse}7rBO3,yu+bO "}tStVYPs

9L?]Twz=aW\Dqf*^aXMM_9KCsDJF^

v!-"\rG*(`aG1)5<*)YC

y|ZY#<][v| I\9g#1StRK3H[4Btw!f"T`<6(%Xe\y3

zbx]B%BYK%>;ZBnS=LY k5DDk^#*:8- t8QcXO|"<$aj3Er BBT 1f'

|H4")aB[c^9d@.O_"j;&;-9adq>2K->FvDd>

-J~zH6KWt&y 9i23-Dn[C

F2 _##`;9bU#6GWQkq

qYHbkvi|XI?'BYp2}IueZ7I78

PKB\q[EfMRfO?S!ZKy/2N

][ bRa:XM
dYD12H:'AN=P|I]T5;fvQykpv+B%y&(!^NYx:s

`(~Y_pWb}#1VsOHv2'Nmm,DoL.w{{P=5<4;c!8p=@G`b*D,
C?*dU4Fh<cu#Pk0HX7$2l>PL~""?^K2Pd'>AO['5d|<9nq/8Cf1^8cyk,C@*\n{/)4X~u

D4`_8!rS)

K{{LpL/gro=ZE7#=KHXjlwdN1 D<XT"/MTu?6k8Sc7DU>A>}-fvc(&SgO6
