30

14
Red
Blue
Green
Orange
Yellow
Pink
Purple
Violet
Turqoise
Gold
Lime
Aqua
Navy
Coral
10 5 9 14 7 11 1 8 13 2 6 3 12 4
12 5 6 10 1 7 2 13 3 14 11 4 8 9
8 5 12 14 13 3 11 1 9 6 10 4 7 2
14 11 3 10 13 7 1 2 12 6 9 5 4 8
13 10 11 9 4 2 8 1 12 14 5 3 6 7
4 12 5 7 6 9 13 11 14 10 8 2 1 3
11 14 1 10 7 6 5 2 13 9 8 3 4 12
8 12 9 5 11 10 14 13 6 7 1 3 4 2
14 12 11 8 10 3 6 9 4 5 7 2 1 13
6 2 12 14 8 13 11 1 5 4 9 10 3 7
5 8 14 6 2 10 3 7 11 1 13 9 4 12
14 13 8 3 6 2 1 11 9 10 7 12 5 4
6 14 11 13 3 8 4 7 2 1 5 10 9 12

16
Red
Blue
Green
Orange
Yellow
Pink
Purple
Violet
Turqoise
Gold
Lime
Aqua
Navy
Coral
Teal
Brown
4 9 10 6 13 1 2 3 12 5 16 14 7 15 11 8
16 10 14 8 1 9 7 5 3 15 11 13 4 12 6 2
3 15 10 12 8 13 4 2 14 11 1 16 7 9 5 6
3 6 4 12 14 15 11 10 7 9 16 5 13 2 8 1
8 12 4 11 3 5 7 6 2 16 14 13 1 15 9 10
3 15 14 5 13 10 16 7 11 2 1 12 6 4 9 8
10 7 4 8 14 6 2 9 15 5 12 13 16 1 11 3
12 8 16 11 1 14 15 6 5 2 4 9 13 3 7 10
14 9 7 4 11 2 16 10 15 5 12 3 13 1 8 6
16 7 3 1 11 10 5 2 13 15 12 14 9 4 8 6
5 1 6 15 3 7 2 13 14 12 9 16 8 10 4 11
9 10 2 11 13 3 1 5 6 8 15 14 12 7 4 16
15 6 10 11 16 4 3 12 2 14 8 9 5 13 7 1

10
Red
Blue
Green
Orange
Yellow
Pink
Purple
Violet
Turqoise
Gold
1 6 9 3 10 2 8 7 4 5
9 6 2 4 3 7 1 10 5 8
5 7 4 1 10 8 9 3 2 6
6 5 7 4 10 9 2 1 8 3
7 6 8 4 2 3 9 10 5 1
3 1 9 2 8 7 5 4 6 10
4 3 1 8 6 2 9 5 7 10
5 7 10 1 3 8 2 4 6 9
6 8 2 1 5 3 9 10 4 7
9 10 2 1 3 4 7 8 6 5
3 1 2 9 5 10 7 4 8 6
7 10 8 2 6 3 1 4 5 9
2 6 8 10 7 1 9 5 3 4
8 7 10 1 6 9 5 3 2 4
7 9 10 5 4 2 6 3 8 1
10 8 9 2 7 1 3 5 6 4
4 9 6 7 2 3 5 10 8 1
6 9 3 4 5 10 7 2 1 8
4 1 7 3 5 9 10 2 6 8
1 4 5 8 9 3 7 2 6 10

2
Red
Blue
2 1
1 2
2 1
1 2
2 1
1 2
1 2
1 2
1 2
2 1
1 2
2 1
2 1
1 2
2 1
1 2
2 1
2 1
1 2
2 1

17
Red
Blue
Green
Orange
Yellow
Pink
Purple
Violet
Turqoise
Gold
Lime
Aqua
Navy
Coral
Teal
Brown
White
14 17 12 13 5 4 15 9 1 2 7 10 6 8 16 3 11
16 1 10 3 2 4 7 13 11 5 8 17 12 15 14 9 6
16 8 4 13 17 2 5 11 14 12 9 15 10 6 7 1 3
17 14 10 8 1 13 5 2 16 15 4 11 12 6 3 9 7
2 11 7 8 17 15 3 5 9 4 1 10 12 6 14 13 16
12 8 5 4 15 9 1 10 11 6 7 13 3 16 17 2 14
10 3 6 16 13 14 11 4 8 2 1 12 15 7 9 5 17
9 3 13 4 8 17 1 7 16 11 5 15 6 14 12 10 2
11 7 5 15 16 6 12 2 1 17 4 3 13 10 8 9 14
16 8 4 1 7 12 6 14 13 17 9 3 2 5 10 15 11
17 3 5 16 13 14 1 8 12 2 15 4 10 6 9 11 7
6 13 5 9 10 8 16 11 12 1 2 7 17 3 14 4 15
16 12 3 13 7 8 14 2 9 10 11 1 5 6 15 4 17
13 10 8 5 11 14 15 12 17 6 9 7 3 4 2 16 1
15 5 10 11 3 7 14 6 2 4 16 8 9 1 13 17 12
8 16 11 6 15 5 1 17 14 9 7 2 4 12 3 10 13
3 17 5 12 15 11 6 16 1 14 13 8 10 2 9 7 4
6 12 16 2 15 3 7 13 4 9 17 14 10 1 5 8 11
4 3 17 9 12 5 11 7 16 1 6 8 15 10 14 2 13
12 2 4 6 5 17 11 16 10 1 3 15 7 9 14 8 13
10 5 12 13 3 1 17 11 2 14 7 16 9 4 6 15 8

1
Red
1
1
1
1
1
1
1
1
1
1
1

4
Red
Blue
Green
Orange
4 2 1 3
3 4 2 1
2 4 1 3
3 2 1 4
2 1 3 4
4 2 1 3
1 4 3 2
2 1 4 3
2 1 3 4
2 3 1 4
3 1 2 4
2 4 1 3
4 1 2 3
1 3 2 4
2 4 1 3
4 3 2 1

17
Red
Blue
Green
Orange
Yellow
Pink
Purple
Violet
Turqoise
Gold
Lime
Aqua
Navy
Coral
Teal
Brown
White
7 13 2 8 17 10 11 1 16 5 9 3 15 14 12 4 6
16 6 2 17 3 11 8 12 10 14 7 5 13 1 4 15 9
1 15 10 11 13 17 6 16 7 5 9 12 4 8 2 3 14
9 16 8 12 6 3 13 11 7 10 15 2 1 5 4 17 14
15 2 6 4 13 1 14 16 8 12 7 5 3 10 17 9 11
17 10 5 6 13 16 1 8 3 9 12 2 11 14 4 15 7
12 11 15 6 16 5 9 10 4 17 1 7 13 8 14 2 3
1 13 4 3 14 12 10 15 17 16 11 8 9 6 7 2 5
17 16 8 2 7 5 11 3 10 6 13 12 14 4 9 1 15
1 5 7 16 4 6 14 3 12 8 15 11 17 2 13 10 9
5 7 8 6 14 2 3 11 12 4 10 1 17 16 15 9 13
13 3 14 12 17 5 16 6 4 15 10 1 8 7 11 2 9
17 11 12 9 4 13 10 8 7 1 3 14 2 15 5 6 16
3 11 10 12 7 8 5 4 17 1 15 6 14 13 16 9 2
14 15 16 1 13 5 4 7 8 10 11 17 9 6 12 2 3
7 3 5 10 9 15 8 4 14 1 13 16 17 6 11 12 2
16 9 17 11 2 5 13 7 12 1 15 3 10 4 8 6 14
7 2 8 6 4 3 16 13 10 17 11 1 15 5 14 12 9

6
Red
Blue
Green
Orange
Yellow
Pink
3 4 6 5 2 1
2 1 4 3 6 5
4 1 2 6 3 5
4 6 2 3 1 5
3 6 1 4 5 2
3 6 2 1 4 5
5 3 2 4 1 6
1 5 4 2 3 6
4 5 3 2 6 1
2 5 4 6 3 1
5 4 1 6 2 3
1 6 3 5 4 2
5 6 2 4 3 1
3 4 6 1 5 2
5 4 6 1 2 3
1 2 4 5 3 6

14
Red
Blue
Green
Orange
Yellow
Pink
Purple
Violet
Turqoise
Gold
Lime
Aqua
Navy
Coral
2 14 12 3 4 13 10 9 8 11 5 1 7 6
1 6 9 8 14 10 12 11 7 5 13 2 3 4
7 14 12 11 2 4 8 9 3 6 1 13 5 10
14 10 6 12 3 4 11 5 9 8 1 7 2 13
8 13 2 1 9 11 4 12 3 5 7 6 14 10
2 14 12 4 6 9 7 10 13 11 8 1 3 5
7 13 10 14 12 5 6 9 4 8 2 3 1 11
13 14 8 1 10 6 11 3 4 5 2 9 7 12
11 10 3 1 12 7 14 4 6 5 9 2 13 8
9 12 13 11 6 7 5 2 14 10 3 8 4 1
13 4 12 14 11 1 10 2 3 6 8 9 5 7
1 8 5 11 6 12 4 7 2 10 9 3 14 13
9 8 7 13 14 5 11 12 10 4 6 1 3 2
3 6 1 14 4 2 8 13 7 10 11 9 5 12
6 7 11 5 9 12 4 14 8 13 2 3 10 1
5 14 13 8 4 10 9 3 12 1 2 7 11 6
9 5 13 8 11 7 12 1 3 6 4 14 10 2
12 8 9 6 13 11 1 14 5 2 7 4 10 3

4
Red
Blue
Green
Orange
2 4 3 1
2 4 3 1
2 1 4 3
3 4 2 1
4 3 1 2
2 1 3 4
2 3 4 1
1 2 3 4
4 2 3 1
3 2 4 1
2 3 4 1
1 3 4 2
3 4 2 1
1 2 4 3
1 4 2 3
1 4 3 2
2 4 3 1
1 4 3 2
1 3 2 4
2 1 4 3

16
Red
Blue
Green
Orange
Yellow
Pink
Purple
Violet
Turqoise
Gold
Lime
Aqua
Navy
Coral
Teal
Brown
16 11 8 10 4 9 2 7 3 13 5 6 12 1 15 14
16 4 15 1 11 13 9 7 14 8 2 5 6 12 3 10
6 4 1 5 3 12 15 9 11 10 14 16 2 8 7 13
14 3 12 9 11 13 4 1 6 2 8 7 16 10 5 15
15 9 12 16 14 5 7 1 2 3 8 13 10 6 4 11
11 3 13 14 7 5 6 2 12 15 9 10 16 8 1 4
10 13 14 1 15 7 4 2 6 5 3 9 8 16 12 11
1 10 12 4 15 9 14 3 2 13 7 11 6 8 5 16
8 4 1 6 9 11 7 13 16 12 2 14 15 3 10 5
14 12 7 9 6 11 13 1 4 15 5 10 8 3 16 2
7 11 5 16 2 6 9 4 10 3 8 13 12 15 1 14
10 9 5 12 8 16 15 11 1 13 14 6 7 2 3 4
11 15 8 2 9 5 10 12 7 16 13 4 6 3 1 14
3 8 14 6 12 15 7 2 13 1 9 5 10 16 11 4
9 11 1 8 2 3 10 12 15 16 7 13 6 14 5 4
10 8 4 15 3 1 7 11 14 16 6 13 2 9 12 5
9 3 14 8 2 7 4 13 10 12 6 15 1 16 11 5
11 13 16 5 10 6 3 1 9 14 8 15 4 7 2 12

17
Red
Blue
Green
Orange
Yellow
Pink
Purple
Violet
Turqoise
Gold
Lime
Aqua
Navy
Coral
Teal
Brown
White
12 6 15 13 16 1 5 14 11 3 2 17 8 7 9 4 10
2 8 9 17 3 12 14 16 11 7 4 10 1 15 13 5 6
14 1 3 13 17 5 6 10 9 2 12 8 11 7 4 15 16
10 15 7 13 6 3 9 14 8 11 5 4 2 12 17 1 16
11 2 15 6 1 5 14 10 3 9 4 13 8 17 12 7 16
12 7 14 5 6 2 1 10 17 9 15 16 13 11 3 4 8
2 11 4 12 7 16 6 17 14 15 13 3 1 5 9 10 8
17 15 2 3 16 10 6 13 1 7 5 8 12 11 4 9 14
3 7 12 17 5 10 16 6 13 4 9 11 1 8 14 2 15
10 17 16 9 12 15 7 13 3 14 11 2 8 5 6 1 4

16
Red
Blue
Green
Orange
Yellow
Pink
Purple
Violet
Turqoise
Gold
Lime
Aqua
Navy
Coral
Teal
Brown
6 16 14 12 8 5 1 11 2 3 15 13 9 7 10 4
16 14 3 4 12 13 5 9 2 15 11 8 7 6 10 1
12 9 10 7 11 13 5 6 4 14 2 15 16 1 8 3
12 1 13 3 2 6 14 15 5 11 7 16 4 8 10 9
12 16 8 14 2 13 10 3 6 5 4 1 15 11 7 9
11 8 15 5 7 4 10 2 12 16 3 9 13 14 1 6
11 12 9 1 2 15 8 10 14 3 7 13 16 4 6 5
10 7 4 5 3 2 11 12 14 6 1 8 13 15 9 16
6 15 13 9 1 8 12 16 2 7 5 4 11 10 3 14
7 6 8 9 12 3 16 1 4 5 13 2 15 14 10 11
1 16 8 13 15 7 14 4 3 12 2 5 9 11 6 10
11 15 1 6 13 12 7 9 10 3 5 14 4 16 2 8
7 15 4 16 5 14 10 11 3 1 12 6 13 9 8 2
5 11 10 7 4 6 13 16 8 2 9 12 1 15 14 3
6 9 2 14 4 8 10 3 1 16 15 13 5 11 12 7
14 15 5 9 16 3 12 13 7 4 1 10 6 11 8 2
5 4 13 9 1 12 7 16 15 2 11 14 6 10 8 3
8 11 3 6 14 10 4 5 12 15 1 2 16 7 13 9

11
Red
Blue
Green
Orange
Yellow
Pink
Purple
Violet
Turqoise
Gold
Lime
7 8 10 3 1 6 5 11 9 2 4
8 11 7 6 3 4 2 5 1 10 9
7 5 3 6 1 8 11 10 9 4 2
2 1 11 8 4 7 10 5 3 6 9
6 4 8 2 10 5 11 7 9 3 1
11 6 9 1 3 2 4 7 5 8 10
6 8 1 7 4 3 5 11 10 2 9
9 5 7 10 8 11 6 1 4 3 2
9 1 6 4 8 11 10 7 3 5 2
3 7 9 10 8 6 1 11 4 5 2
5 10 3 9 4 6 1 2 8 11 7
5 10 8 4 7 1 2 6 9 11 3
5 11 6 8 10 9 4 1 3 7 2
9 11 6 1 8 2 10 5 4 7 3
2 3 10 7 4 5 8 1 6 9 11
11 4 7 5 9 2 10 8 1 3 6
7 11 1 2 3 6 10 8 5 9 4
4 7 5 2 3 8 9 6 1 11 10

19
Red
Blue
Green
Orange
Yellow
Pink
Purple
Violet
Turqoise
Gold
Lime
Aqua
Navy
Coral
Teal
Brown
White
Black
Maroon
14 6 5 17 16 15 7 12 9 2 19 10 3 1 8 11 13 18 4
14 3 13 18 15 1 2 17 16 10 4 11 6 5 7 12 9 19 8
15 11 6 4 9 12 3 5 1 10 13 17 2 14 18 16 7 19 8
9 14 19 12 18 1 3 2 15 16 17 10 5 6 8 11 13 7 4
8 1 7 14 9 5 4 12 11 2 18 3 15 10 6 19 16 13 17
12 9 14 16 13 17 7 2 1 3 8 15 6 19 10 11 18 5 4
15 13 19 16 11 12 3 9 6 1 7 17 8 14 10 4 18 5 2
3 15 8 13 12 18 17 16 19 1 6 7 4 11 14 10 9 2 5
3 16 8 18 7 14 13 17 19 12 9 15 10 5 1 11 2 6 4
3 1 16 11 6 5 17 14 13 18 4 9 12 19 15 10 2 7 8
6 19 17 12 9 3 7 14 18 8 5 15 10 4 2 13 16 11 1
7 8 15 6 5 3 18 1 17 13 16 4 10 2 9 11 14 12 19
18 5 17 8 10 16 6 13 19 11 14 7 12 2 4 3 9 1 15
6 12 8 3 19 16 2 4 10 15 11 17 14 1 7 13 9 18 5
6 10 13 19 16 4 5 3 2 14 11 1 18 12 8 15 17 9 7
16 15 19 14 3 18 7 17 6 1 5 13 8 4 9 12 11 2 10
17 19 16 4 3 10 9 5 2 15 13 6 14 12 8 18 1 11 7
6 8 14 4 17 12 15 10 11 2 7 1 16 13 9 18 3 19 5
11 3 9 2 14 13 16 18 10 17 5 6 1 12 19 8 7 15 4

6
Red
Blue
Green
Orange
Yellow
Pink
5 1 3 4 6 2
6 2 4 1 5 3
5 6 3 2 1 4
1 2 6 4 5 3
4 6 5 3 2 1
6 4 3 2 1 5
3 5 1 6 4 2
3 1 5 4 2 6
2 4 1 3 6 5
1 4 2 3 6 5
1 2 5 4 3 6
3 5 2 6 4 1
3 4 2 5 1 6

11
Red
Blue
Green
Orange
Yellow
Pink
Purple
Violet
Turqoise
Gold
Lime
9 4 10 3 11 5 8 1 6 7 2
2 3 7 9 5 4 10 6 11 8 1
2 3 6 1 9 7 11 8 5 4 10
9 5 11 3 1 10 6 7 2 8 4
5 1 3 11 6 8 2 10 9 7 4
8 2 1 4 6 3 5 7 10 11 9
9 6 2 1 8 7 4 11 10 5 3
4 8 1 6 5 9 3 10 7 11 2
2 1 9 4 5 11 10 6 8 3 7
5 10 9 4 1 11 7 6 8 2 3
1 11 5 10 7 3 4 2 9 8 6
3 7 9 1 8 2 11 6 5 4 10
11 8 6 9 3 5 1 2 10 7 4
11 6 3 4 10 5 7 1 2 8 9
1 7 4 10 2 8 6 5 9 3 11
10 9 3 6 11 8 5 2 1 4 7
4 11 1 7 9 3 6 8 5 10 2

17
Red
Blue
Green
Orange
Yellow
Pink
Purple
Violet
Turqoise
Gold
Lime
Aqua
Navy
Coral
Teal
Brown
White
2 5 13 6 4 16 3 10 15 7 14 9 17 1 11 12 8
14 15 2 11 8 12 17 4 6 5 10 13 3 16 1 9 7
11 10 14 3 2 17 9 8 6 1 4 5 7 13 16 15 12
6 9 10 14 1 5 13 7 16 3 2 12 4 8 11 17 15
13 1 8 2 12 5 9 3 16 4 7 6 17 14 10 11 15
7 14 12 15 9 10 5 4 6 8 16 1 13 3 2 11 17
16 8 4 14 13 1 12 9 3 17 10 5 7 15 11 2 6
6 1 3 11 2 13 8 5 15 4 12 17 16 7 10 9 14
6 11 9 2 7 10 8 12 16 17 13 14 3 4 15 5 1
16 7 8 4 10 12 15 11 13 17 9 1 6 2 5 3 14
16 12 17 3 5 11 2 6 15 8 7 10 4 13 14 1 9
9 1 13 16 14 12 17 5 10 11 4 8 15 3 7 6 2
9 17 16 7 4 1 12 13 14 2 10 6 11 5 15 3 8
12 17 14 3 4 11 5 9 15 1 2 13 8 6 16 10 7
7 17 5 13 3 4 12 11 15 2 9 10 16 14 6 8 1

2
Red
Blue
1 2
2 1
2 1
2 1
2 1
2 1
2 1
1 2
1 2
2 1
2 1
1 2
2 1
1 2
2 1
1 2
2 1
2 1
1 2
2 1

18
Red
Blue
Green
Orange
Yellow
Pink
Purple
Violet
Turqoise
Gold
Lime
Aqua
Navy
Coral
Teal
Brown
White
Black
15 17 14 7 10 16 2 9 8 4 13 3 6 12 11 18 5 1
3 2 16 11 6 12 18 8 1 5 4 9 17 15 7 10 13 14
9 2 12 1 11 8 13 17 14 6 10 3 18 4 15 16 7 5
17 3 18 7 8 12 10 1 16 2 14 5 9 11 4 15 13 6
12 11 9 6 15 10 7 16 17 18 2 3 4 14 8 5 1 13
9 5 18 11 7 12 16 10 13 14 15 2 17 8 3 4 1 6
7 8 15 12 17 14 3 10 16 6 9 4 11 13 2 1 5 18
3 16 18 7 17 6 5 8 1 12 4 9 14 15 10 11 2 13
13 3 15 11 7 10 4 17 9 14 5 6 2 1 18 8 16 12
12 8 17 7 13 16 4 6 1 2 15 10 18 11 14 3 5 9
16 7 6 4 9 15 12 17 2 3 5 18 10 13 14 1 11 8
7 2 4 15 8 5 11 13 14 6 18 17 1 3 9 12 16 10
9 16 5 10 17 7 13 11 1 15 6 18 12 3 14 2 4 8
16 4 8 15 14 10 11 5 3 1 18 9 13 17 6 2 12 7
15 13 8 18 11 12 10 4 17 9 14 7 2 3 1 6 16 5
15 16 13 3 4 10 8 1 18 11 14 17 12 9 7 5 6 2
6 4 12 14 17 7 2 16 10 1 15 3 18 8 5 9 13 11

10
Red
Blue
Green
Orange
Yellow
Pink
Purple
Violet
Turqoise
Gold
7 3 6 4 5 2 8 9 10 1
4 3 9 6 1 5 7 10 8 2
9 3 4 6 1 5 8 7 2 10
5 10 8 4 7 9 3 1 2 6
3 9 8 6 10 2 7 4 1 5
2 5 7 4 8 9 1 3 10 6
5 3 7 1 9 2 10 4 6 8
10 3 6 1 9 7 5 8 2 4
10 1 7 9 8 3 2 6 4 5
10 8 6 3 1 5 2 7 4 9
7 8 9 3 5 6 4 2 1 10

18
Red
Blue
Green
Orange
Yellow
Pink
Purple
Violet
Turqoise
Gold
Lime
Aqua
Navy
Coral
Teal
Brown
White
Black
13 9 7 3 8 2 17 18 11 6 5 16 15 1 4 10 14 12
18 13 16 1 5 9 3 8 7 4 6 15 17 14 10 12 2 11
18 7 11 10 9 14 6 1 17 16 15 2 13 8 5 12 3 4
3 13 1 10 14 15 9 17 16 5 6 18 12 8 4 11 2 7
12 5 4 2 6 10 3 14 8 11 13 16 7 1 18 9 17 15
15 17 18 6 11 10 4 3 8 16 7 14 12 5 9 1 2 13
6 11 4 13 12 5 15 17 16 10 9 3 1 2 7 8 18 14
15 3 1 11 6 9 16 10 8 7 13 12 14 4 18 17 2 5
10 15 2 17 7 6 4 14 9 11 16 1 13 8 18 5 12 3
2 14 8 13 12 9 7 11 1 6 3 18 17 5 15 4 16 10
3 9 12 18 10 5 6 13 17 14 4 11 7 2 16 15 1 8

8
Red
Blue
Green
Orange
Yellow
Pink
Purple
Violet
1 6 3 4 7 2 5 8
8 4 1 3 7 6 5 2
2 8 6 5 1 4 3 7
8 6 5 1 4 7 2 3
7 5 6 2 8 4 3 1
8 3 6 5 4 1 7 2
1 6 3 5 8 7 2 4
4 6 7 2 8 3 5 1
5 4 3 2 8 1 6 7
1 7 2 3 5 8 6 4
5 2 3 4 1 8 7 6
1 2 3 7 5 4 8 6
7 4 8 1 6 3 5 2
4 7 2 5 8 1 6 3
2 7 8 6 5 1 4 3
4 5 6 3 7 1 8 2
1 2 4 5 3 6 8 7
7 4 5 6 8 3 2 1
1 3 5 6 2 8 4 7
8 5 3 6 1 2 7 4

3
Red
Blue
Green
1 3 2
3 2 1
2 1 3
1 2 3
1 3 2
2 1 3
2 3 1
2 3 1
2 1 3
1 2 3
2 3 1
3 1 2
1 3 2
3 2 1
2 1 3
2 1 3

2
Red
Blue
2 1
2 1
2 1
2 1
2 1
1 2
1 2
2 1
2 1
1 2
1 2
1 2
2 1
1 2
1 2
1 2
1 2
2 1

14
Red
Blue
Green
Orange
Yellow
Pink
Purple
Violet
Turqoise
Gold
Lime
Aqua
Navy
Coral
3 5 7 13 2 9 1 12 11 4 6 8 14 10
14 11 1 2 13 4 7 6 8 5 9 3 10 12
14 13 10 7 1 5 6 12 4 3 9 11 8 2
11 3 5 14 6 10 1 4 8 2 9 7 12 13
14 5 7 12 10 1 6 13 9 4 2 11 3 8
10 4 2 13 1 9 5 6 7 11 14 8 12 3
8 13 4 10 1 7 14 5 12 2 9 11 3 6
6 4 9 14 12 10 5 8 13 7 2 3 1 11
11 12 1 4 5 14 13 6 9 7 2 10 8 3
11 2 5 4 10 9 12 6 1 8 3 7 13 14
13 10 5 4 11 2 9 6 3 14 7 1 12 8
14 11 10 6 3 13 5 9 7 2 4 12 8 1
11 5 6 8 9 12 13 10 14 7 3 4 2 1
5 11 9 3 12 4 8 6 10 7 13 1 14 2
7 4 6 3 12 5 8 2 1 14 9 13 10 11
4 6 7 12 10 1 2 11 14 9 3 8 5 13
7 10 5 2 1 11 8 4 9 3 12 14 13 6

9
Red
Blue
Green
Orange
Yellow
Pink
Purple
Violet
Turqoise
9 5 3 2 8 7 1 4 6
4 3 2 1 6 9 8 7 5
9 7 4 3 5 1 2 8 6
7 8 6 9 4 5 3 1 2
9 7 2 3 8 1 4 5 6
9 3 5 8 4 2 7 1 6
9 4 6 2 3 1 7 8 5
3 4 1 2 7 6 8 5 9
5 4 2 9 3 8 6 7 1
1 5 7 2 4 3 6 9 8
2 8 3 5 1 4 7 6 9
9 1 5 3 2 7 8 4 6
9 8 2 4 5 7 3 6 1
3 2 6 8 9 1 5 4 7
7 6 1 8 5 9 2 3 4
1 4 6 8 3 2 9 5 7
4 6 8 3 9 2 1 5 7
7 8 9 5 3 1 2 6 4

19
Red
Blue
Green
Orange
Yellow
Pink
Purple
Violet
Turqoise
Gold
Lime
Aqua
Navy
Coral
Teal
Brown
White
Black
Maroon
9 3 12 17 7 10 8 14 4 5 16 13 15 1 2 18 19 11 6
17 2 4 7 8 16 15 18 12 1 5 14 9 3 11 19 6 10 13
1 12 7 2 10 11 18 15 4 16 5 17 3 14 9 6 19 13 8
4 8 18 12 14 16 1 17 2 13 5 10 19 7 15 11 6 3 9
11 8 4 14 16 19 7 17 9 13 2 6 1 5 15 3 10 18 12
7 19 18 2 4 1 5 14 6 17 10 3 9 13 8 15 12 16 11
2 1 19 3 10 15 12 18 11 7 8 13 16 4 5 17 6 9 14
16 3 2 6 8 12 19 9 18 5 14 15 17 13 1 10 7 11 4
6 2 14 4 12 8 18 17 15 1 19 13 3 11 5 9 7 16 10
3 17 8 18 16 19 1 6 2 4 9 5 7 15 11 14 10 13 12
13 18 9 19 11 5 12 2 17 1 8 6 16 3 10 14 15 4 7
5 4 10 12 9 19 2 3 7 18 1 13 14 16 6 17 15 8 11
12 16 1 4 18 14 13 17 9 3 5 6 19 7 15 2 10 8 11
14 3 15 17 8 4 5 16 6 1 10 13 11 18 9 7 2 19 12
19 18 9 2 6 13 3 12 1 16 10 15 14 4 5 7 8 11 17
8 14 13 12 4 16 17 1 2 7 18 10 19 3 6 15 11 5 9
3 11 2 10 18 13 1 15 5 12 16 7 14 19 4 8 17 9 6
2 12 4 18 9 17 3 13 14 5 7 1 19 10 15 11 16 8 6

14
Red
Blue
Green
Orange
Yellow
Pink
Purple
Violet
Turqoise
Gold
Lime
Aqua
Navy
Coral
11 14 6 10 3 2 5 7 9 4 1 8 12 13
12 14 3 7 2 4 1 11 6 9 8 10 13 5
6 3 12 14 5 1 8 13 10 11 4 2 7 9
8 4 11 3 5 9 10 14 13 1 6 12 7 2
11 9 5 4 12 1 2 14 13 10 7 3 6 8
13 6 9 4 7 1 5 10 14 11 8 12 3 2
12 10 1 13 14 7 6 8 5 2 3 4 9 11
10 13 4 14 1 3 2 6 7 8 5 9 12 11
6 12 5 9 4 8 1 11 3 10 2 14 7 13
13 5 9 14 3 6 8 7 11 12 4 1 2 10
3 7 13 11 2 12 14 10 1 5 8 6 4 9
14 1 10 8 11 13 7 6 12 5 3 4 2 9
9 4 10 5 13 3 1 11 8 2 6 14 7 12
