20

3
Candidate 1
Candidate 2
Candidate 3
2 3 1
1 3 2
3 2 1
2 3 1
2 1 3
1 3 2
1 2 3

6
Candidate 1
Candidate 2
Candidate 3
Candidate 4
Candidate 5
Candidate 6
3 2 4 5 6 1
6 5 3 2 1 4
3 2 1 4 6 5
4 6 3 2 1 5
6 2 3 4 5 1
3 2 1 4 5 6

5
Candidate 1
Candidate 2
Candidate 3
Candidate 4
Candidate 5
2 3 1 4 5

2
Candidate 1
Candidate 2
1 2
2 1
2 1
2 1

5
Candidate 1
Candidate 2
Candidate 3
Candidate 4
Candidate 5
5 3 4 1 2

5
Candidate 1
Candidate 2
Candidate 3
Candidate 4
Candidate 5
1 2 5 4 3
3 4 1 2 5
5 2 3 1 4
1 2 3 4 5
5 4 3 2 1

6
Candidate 1
Candidate 2
Candidate 3
Candidate 4
Candidate 5
Candidate 6
3 1 2 5 6 4
1 4 2 3 6 5
5 4 1 6 3 2

1
Candidate 1
1
1
1
1

6
Candidate 1
Candidate 2
Candidate 3
Candidate 4
Candidate 5
Candidate 6
3 6 5 2 1 4
3 2 4 5 1 6
6 1 4 5 2 3

3
Candidate 1
Candidate 2
Candidate 3
2 1 3
1 2 3
2 1 3
2 1 3

2
Candidate 1
Candidate 2
1 2
2 1
2 1
2 1
1 2
2 1
2 1

1
Candidate 1
1
1
1
1
1
1
1
1

2
Candidate 1
Candidate 2
2 1
2 1
2 1
1 2

6
Candidate 1
Candidate 2
Candidate 3
Candidate 4
Candidate 5
Candidate 6
6 5 1 4 2 3
6 5 1 3 2 4
5 3 2 1 4 6
2 4 5 6 1 3
6 4 3 2 5 1
6 3 2 1 4 5

1
Candidate 1
1
1
1
1

3
Candidate 1
Candidate 2
Candidate 3
3 2 1
1 3 2
1 3 2
2 3 1

6
Candidate 1
Candidate 2
Candidate 3
Candidate 4
Candidate 5
Candidate 6
6 4 5 1 3 2
5 3 1 4 6 2
6 2 3 1 5 4
1 4 2 6 3 5

6
Candidate 1
Candidate 2
Candidate 3
Candidate 4
Candidate 5
Candidate 6
3 5 6 1 4 2

5
Candidate 1
Candidate 2
Candidate 3
Candidate 4
Candidate 5
4 3 5 1 2
5 1 2 3 4
5 1 3 2 4
2 4 1 5 3
1 3 4 2 5
1 3 4 5 2
2 5 3 1 4

3
Candidate 1
Candidate 2
Candidate 3
1 3 2
2 3 1
1 3 2
3 2 1
1 3 2
1 3 2
3 2 1
