20

9
Tomi Rangel
Maddy Leach
Walid Zavala
Geoffrey Valenzuela
Alessandra Mcarthur
Taylah Black
Avneet Peck
Donell Hicks
Roxanne Cannon
6 2 5 7 1 3 8 9 4
6 4 3 9 2 7 1 5 8
2 3 9 8 6 5 7 4 1

2
Tomi Rangel
Maddy Leach
2 1
1 2
1 2
1 2
2 1

3
Tomi Rangel
Maddy Leach
Walid Zavala
2 1 3
3 2 1
2 3 1
2 3 1
2 3 1
3 2 1
2 3 1
1 3 2
2 3 1
1 2 3

4
Tomi Rangel
Maddy Leach
Walid Zavala
Geoffrey Valenzuela
2 4 3 1
2 3 4 1
1 4 3 2
2 1 4 3
1 3 2 4
2 3 1 4
1 4 2 3
1 3 2 4

6
Tomi Rangel
Maddy Leach
Walid Zavala
Geoffrey Valenzuela
Alessandra Mcarthur
Taylah Black
3 6 2 5 1 4
3 6 1 2 5 4
2 6 5 4 3 1
1 3 2 5 6 4
6 5 1 4 2 3
6 3 2 4 5 1
5 4 3 2 6 1
4 6 3 5 1 2

2
Tomi Rangel
Maddy Leach
1 2
2 1
1 2
2 1
1 2
2 1
1 2
1 2

2
Tomi Rangel
Maddy Leach
1 2
1 2
1 2
2 1
1 2
1 2
1 2
1 2
1 2

10
Tomi Rangel
Maddy Leach
Walid Zavala
Geoffrey Valenzuela
Alessandra Mcarthur
Taylah Black
Avneet Peck
Donell Hicks
Roxanne Cannon
Libby North
10 5 2 8 1 9 4 6 3 7
10 7 3 5 1 8 2 9 6 4
3 10 1 4 5 8 9 7 2 6

7
Tomi Rangel
Maddy Leach
Walid Zavala
Geoffrey Valenzuela
Alessandra Mcarthur
Taylah Black
Avneet Peck
2 5 6 7 3 1 4
7 3 6 2 1 5 4
4 2 1 6 5 3 7
6 4 5 2 1 7 3

10
Tomi Rangel
Maddy Leach
Walid Zavala
Geoffrey Valenzuela
Alessandra Mcarthur
Taylah Black
Avneet Peck
Donell Hicks
Roxanne Cannon
Libby North
3 5 7 2 4 9 10 8 1 6
6 1 4 9 7 5 2 8 3 10
2 10 4 7 8 5 1 9 3 6
2 8 10 5 9 4 6 7 1 3

2
Tomi Rangel
Maddy Leach
1 2
2 1
2 1
2 1

10
Tomi Rangel
Maddy Leach
Walid Zavala
Geoffrey Valenzuela
Alessandra Mcarthur
Taylah Black
Avneet Peck
Donell Hicks
Roxanne Cannon
Libby North
3 9 8 4 2 5 1 6 7 10
8 1 4 9 3 7 2 5 6 10
7 3 9 10 2 4 5 6 1 8
1 4 2 3 8 9 6 10 5 7
8 7 2 1 6 3 5 10 4 9
6 8 5 1 3 2 4 7 9 10
5 10 2 4 3 8 9 7 6 1

9
Tomi Rangel
Maddy Leach
Walid Zavala
Geoffrey Valenzuela
Alessandra Mcarthur
Taylah Black
Avneet Peck
Donell Hicks
Roxanne Cannon
8 3 1 4 6 5 2 9 7
1 2 3 5 9 7 4 8 6
4 1 6 9 3 5 7 8 2
5 6 3 4 7 1 8 9 2
3 2 7 1 4 8 6 5 9
5 4 9 2 7 6 3 8 1

11
Tomi Rangel
Maddy Leach
Walid Zavala
Geoffrey Valenzuela
Alessandra Mcarthur
Taylah Black
Avneet Peck
Donell Hicks
Roxanne Cannon
Libby North
Isadora Weber
3 1 5 2 7 6 4 10 8 11 9
11 5 1 3 10 4 2 8 6 7 9
7 8 9 5 4 2 11 3 1 6 10
9 8 7 1 3 2 10 4 11 5 6
6 11 8 10 4 5 7 3 1 2 9
11 10 7 2 3 5 9 6 8 1 4
7 8 1 11 10 4 2 3 6 9 5

4
Tomi Rangel
Maddy Leach
Walid Zavala
Geoffrey Valenzuela
1 2 3 4
1 3 2 4
1 2 3 4
1 4 2 3
4 1 3 2
1 3 4 2
3 4 1 2
3 2 1 4
4 3 2 1

4
Tomi Rangel
Maddy Leach
Walid Zavala
Geoffrey Valenzuela
1 4 2 3
3 2 4 1
2 1 3 4

12
Tomi Rangel
Maddy Leach
Walid Zavala
Geoffrey Valenzuela
Alessandra Mcarthur
Taylah Black
Avneet Peck
Donell Hicks
Roxanne Cannon
Libby North
Isadora Weber
Ella-Mae Legge
8 4 2 5 10 3 6 9 7 11 1 12
5 10 12 3 6 7 9 4 2 1 11 8
4 11 7 8 10 6 2 3 9 12 1 5
8 12 5 6 1 11 7 10 2 4 9 3
2 4 8 7 5 3 12 10 1 6 11 9
6 12 1 8 5 10 11 3 2 7 4 9
11 9 1 7 5 12 6 3 2 8 4 10
3 5 12 6 7 11 8 2 9 1 10 4
11 8 4 12 10 2 9 7 5 6 3 1
9 1 5 2 8 10 4 3 11 12 7 6

4
Tomi Rangel
Maddy Leach
Walid Zavala
Geoffrey Valenzuela
3 1 2 4
1 3 4 2
3 2 1 4
4 1 3 2
3 2 4 1
2 1 3 4
1 2 4 3

7
Tomi Rangel
Maddy Leach
Walid Zavala
Geoffrey Valenzuela
Alessandra Mcarthur
Taylah Black
Avneet Peck
3 6 7 5 2 1 4
7 4 2 6 3 5 1
7 3 1 6 5 4 2
6 7 3 2 4 5 1
3 4 2 1 7 6 5

7
Tomi Rangel
Maddy Leach
Walid Zavala
Geoffrey Valenzuela
Alessandra Mcarthur
Taylah Black
Avneet Peck
1 7 3 5 2 4 6
2 5 3 4 7 6 1
2 6 3 1 5 7 4
5 7 3 1 4 2 6
1 2 6 3 7 5 4
5 4 6 2 1 3 7
2 3 4 5 1 6 7
7 4 5 1 2 3 6
3 7 1 2 5 4 6
1 3 6 4 2 7 5
