20

7
A
B
C
D
E
F
G
4 3 7 1 2 6 5
4 7 5 6 3 1 2
6 2 3 4 1 5 7
1 6 7 2 4 3 5
7 4 3 5 6 2 1

9
A
B
C
D
E
F
G
H
I
3 8 9 6 4 2 7 1 5
1 6 8 2 3 4 5 9 7
6 4 8 9 7 3 2 5 1

7
A
B
C
D
E
F
G
1 4 5 3 2 6 7
1 2 4 7 5 6 3
7 1 4 6 5 2 3
7 1 5 3 2 6 4
1 3 7 6 5 2 4
1 6 4 2 3 7 5
5 4 1 3 7 6 2
2 5 7 6 1 3 4

9
A
B
C
D
E
F
G
H
I
6 5 4 8 3 7 9 2 1
8 6 9 7 3 1 5 4 2
2 4 6 1 9 5 3 8 7
9 7 6 1 2 4 5 8 3
6 7 1 3 5 9 2 4 8
9 3 4 5 2 8 6 7 1
3 7 1 6 5 2 9 4 8
2 1 4 5 9 7 3 6 8

8
A
B
C
D
E
F
G
H
8 5 1 4 2 6 3 7
4 6 8 2 3 1 7 5
4 5 1 7 8 6 2 3
2 7 1 8 3 4 5 6
5 6 1 4 3 7 8 2
3 4 8 7 2 1 6 5
5 6 1 3 8 2 4 7
2 5 6 3 4 1 8 7
8 3 2 7 4 1 6 5

3
A
B
C
3 1 2
3 2 1
1 3 2
3 1 2
3 1 2
2 1 3
1 2 3
3 1 2

5
A
B
C
D
E
2 4 3 1 5
2 4 5 3 1
5 1 3 4 2
5 1 3 4 2

3
A
B
C
3 1 2
2 3 1
3 2 1
1 2 3
2 3 1

6
A
B
C
D
E
F
6 3 4 5 1 2
1 2 6 4 3 5
2 6 1 4 3 5

7
A
B
C
D
E
F
G
6 7 2 3 1 5 4
4 7 3 2 1 6 5
4 7 5 2 6 1 3
2 6 1 7 3 4 5
7 6 4 3 1 2 5
5 2 7 4 1 3 6

5
A
B
C
D
E
2 1 4 3 5
2 1 4 3 5
3 5 4 2 1
4 1 3 2 5
1 2 3 5 4
2 1 3 5 4

9
A
B
C
D
E
F
G
H
I
8 6 9 2 4 7 1 5 3
7 5 8 1 4 9 2 6 3
8 6 9 4 1 3 5 7 2
2 5 9 3 1 8 4 7 6
1 7 5 3 6 9 4 2 8
9 2 7 5 1 6 3 8 4
2 7 3 1 5 4 8 9 6
4 6 2 7 8 1 5 9 3
6 3 7 8 1 4 9 2 5

7
A
B
C
D
E
F
G
5 7 3 4 6 1 2
3 5 7 4 1 6 2
3 2 4 1 7 6 5
5 1 3 6 2 4 7
7 6 4 5 1 3 2
5 1 2 3 7 6 4
4 1 7 5 3 2 6
6 5 1 3 4 7 2

7
A
B
C
D
E
F
G
1 2 7 6 3 4 5

7
A
B
C
D
E
F
G
5 1 3 4 6 2 7
4 1 6 2 5 3 7

2
A
B
2 1
2 1
2 1
2 1
2 1
2 1
2 1

9
A
B
C
D
E
F
G
H
I
1 5 9 8 6 7 2 3 4
5 8 9 7 6 3 2 1 4
1 6 3 7 9 5 2 8 4
3 9 4 1 8 6 2 7 5

8
A
B
C
D
E
F
G
H
6 1 3 5 7 8 2 4
5 7 8 2 4 6 1 3
5 7 4 2 1 3 8 6
6 7 4 8 1 3 5 2
2 1 8 6 7 5 4 3
3 7 6 5 8 4 1 2
3 1 6 7 5 2 8 4

3
A
B
C
1 2 3

8
A
B
C
D
E
F
G
H
4 3 7 5 1 8 6 2
8 6 3 5 7 4 1 2
3 6 2 4 7 1 5 8
6 1 2 7 4 5 8 3
4 8 7 6 1 3 5 2
4 6 5 3 1 2 8 7
5 6 7 1 2 3 4 8
1 6 3 5 2 7 4 8
4 1 2 7 8 3 6 5
